…
# R Markdown

This is an R Markdown document. Markdown is a simple formatting syntax for authoring HTML, PDF, and MS Word documents. For more details on using R Markdown see <http://rmarkdown.rstudio.com>.

You can embed an R code chunk like this:


```r
library(readxl)
X <- read_xlsx("tech.xlsx",sheet = 1)
X
```

```
## # A tibble: 58 x 8
##          A      B       C       D       E       F     G      H
##      <dbl>  <dbl>   <dbl>   <dbl>   <dbl>   <dbl> <dbl>  <dbl>
##  1 0.00474 0.116  0.0154  0       0.00237 0.0356  0.674 0.152 
##  2 0.00163 0.0931 0.0376  0       0.00980 0.0654  0.621 0.172 
##  3 0       0.167  0.00795 0       0.00159 0.0127  0.649 0.162 
##  4 0.0442  0.345  0       0.0161  0.00402 0.00402 0.566 0.0201
##  5 0.0285  0.194  0.0318  0.00670 0.00335 0.0285  0.400 0.307 
##  6 0       0.25   0       0       0       0       0.729 0.0208
##  7 0.00846 0.0782 0.0211  0.00211 0.00282 0.0113  0.788 0.0881
##  8 0.0112  0.303  0.00560 0.00280 0.00840 0.157   0.415 0.0980
##  9 0       0.253  0       0       0       0       0.72  0.0267
## 10 0.00508 0.117  0       0       0       0       0.746 0.132 
## # ... with 48 more rows
```
…
